
{
    "region_name":"San Marino",
    "bg_color":"#D15905",
    "border_color":"#000000",
    "border_thickness":1.0,
    "subregions":[
        {
            "sub_name":"Acquaviva",
            "sub_capital":"Acquaviva",
            "leader_name":"Lucia Tamagnini",
            "greyscale_color":"#DADADA"
        },
        {
            "sub_name":"Borgo Maggiore",
            "sub_capital":"Borgo Maggiore",
            "leader_name":"Sergio Nanni",
            "greyscale_color":"#BCBCBC"
        },
        {
            "sub_name":"Chiesanuova",
            "sub_capital":"Chiesanuova",
            "leader_name":"Franco Santi",
            "greyscale_color":"#9F9F9F"
        },
        {
            "sub_name":"Domagnano",
            "sub_capital":"Domagnano",
            "leader_name":"Gabriel Guidi",
            "greyscale_color":"#848484"
        },
        {
            "sub_name":"Faetano",
            "sub_capital":"Faetano",
            "leader_name":"Pier Mario Bedetti",
            "greyscale_color":"#6A6A6A"
        },
        {
            "sub_name":"Fiorentino",
            "sub_capital":"Fiorentino",
            "leader_name":"Gerri Fabbri",
            "greyscale_color":"#515151"
        },
        {
            "sub_name":"Montegiardino",
            "sub_capital":"Montegiardino",
            "leader_name":"Marta Fabbri",
            "greyscale_color":"#3A3A3A"
        },
        {
            "sub_name":"Serravalle",
            "sub_capital":"Serravalle",
            "leader_name":"Leandro Maiani",
            "greyscale_color":"#131313"
        },
        {
            "sub_name":"City of San Marino",
            "sub_capital":"City of San Marino",
            "leader_name":"Maria Teresa Beccari",
            "greyscale_color":"#262626"
        }
    ]
}