
{
    "region_name":"Slovakia",
    "bg_color":"#D15905",
    "border_color":"#000000",
    "border_thickness":1.0,
    "subregions":[
        {
            "sub_name":"Bratislava",
            "sub_capital":"Bratislava",
            "leader_name":"n/a",
            "greyscale_color":"#F9F9F9"
        },
        {
            "sub_name":"Trnava",
            "sub_capital":"Trnava",
            "leader_name":"n/a",
            "greyscale_color":"#F7F7F7"
        },
        {
            "sub_name":"Trencin",
            "sub_capital":"Trencin",
            "leader_name":"n/a",
            "greyscale_color":"#F6F6F6"
        },
        {
            "sub_name":"Nitra",
            "sub_capital":"Nitra",
            "leader_name":"n/a",
            "greyscale_color":"#F5F5F5"
        },
        {
            "sub_name":"Zilina",
            "sub_capital":"Zilina",
            "leader_name":"n/a",
            "greyscale_color":"#F4F4F4"
        },
        {
            "sub_name":"Banska Bystrica",
            "sub_capital":"Banska Bystrica",
            "leader_name":"n/a",
            "greyscale_color":"#F2F2F2"
        },
        {
            "sub_name":"Presov",
            "sub_capital":"Presov",
            "leader_name":"n/a",
            "greyscale_color":"#F1F1F1"
        },
        {
            "sub_name":"Kosice",
            "sub_capital":"Kosice",
            "leader_name":"n/a",
            "greyscale_color":"#F0F0F0"
        }
    ]
}